ru\dyatchina\tm\dao\TaskDAO.class
ru\dyatchina\tm\dao\ProjectDAO.class
ru\dyatchina\tm\entity\Project.class
ru\dyatchina\tm\constant\TerminalConst.class
ru\dyatchina\tm\entity\Task.class
ru\dyatchina\tm\App.class
